{"images":[{"id":10144573,"name":"10.1","distribution":"FreeBSD","slug":"freebsd-10-1-x64","public":true,"regions":["nyc1","ams1","sfo1","nyc2","ams2","sgp1","lon1","nyc3","ams3","fra1","tor1","sfo2","blr1"],"created_at":"2015-01-20T20:04:34Z","min_disk_size":20,"type":"snapshot","size_gigabytes":2.27},{"id":12065782,"name":"22 x64","distribution":"Fedora","slug":"fedora-22-x64","public":true,"regions":["nyc1","ams1","sfo1","nyc2","ams2","sgp1","lon1","nyc3","ams3","fra1","tor1","sfo2","blr1"],"created_at":"2015-05-28T19:54:54Z","min_disk_size":20,"type":"snapshot","size_gigabytes":0.52},{"id":13321858,"name":"10.2","distribution":"FreeBSD","slug":"freebsd-10-2-x64","public":true,"regions":["nyc1","ams1","sfo1","nyc2","ams2","sgp1","lon1","nyc3","ams3","fra1","tor1","sfo2","blr1"],"created_at":"2015-08-28T19:14:36Z","min_disk_size":20,"type":"snapshot","size_gigabytes":2.33},{"id":14238961,"name":"23 x64","distribution":"Fedora","slug":"fedora-23-x64","public":true,"regions":["nyc1","sfo1","nyc2","ams2","sgp1","lon1","nyc3","ams3","fra1","tor1","sfo2","blr1"],"created_at":"2015-11-03T17:35:54Z","min_disk_size":20,"type":"snapshot","size_gigabytes":0.48},{"id":14782899,"name":"6.7 x32","distribution":"CentOS","slug":"centos-6-5-x32","public":true,"regions":["nyc1","sfo1","nyc2","ams2","sgp1","lon1","nyc3","ams3","fra1","tor1","sfo2","blr1"],"created_at":"2015-12-10T17:10:48Z","min_disk_size":20,"type":"snapshot","size_gigabytes":1.17},{"id":14782952,"name":"6.7 x64","distribution":"CentOS","slug":"centos-6-5-x64","public":true,"regions":["nyc1","sfo1","nyc2","ams2","sgp1","lon1","nyc3","ams3","fra1","tor1","sfo2","blr1"],"created_at":"2015-12-10T17:19:06Z","min_disk_size":20,"type":"snapshot","size_gigabytes":1.35},{"id":15621816,"name":"15.10 x64","distribution":"Ubuntu","slug":"ubuntu-15-10-x64","public":true,"regions":["nyc1","sfo1","nyc2","ams2","sgp1","lon1","nyc3","ams3","fra1","tor1","sfo2","blr1"],"created_at":"2016-02-03T16:06:21Z","min_disk_size":20,"type":"snapshot","size_gigabytes":1.57},{"id":15621817,"name":"15.10 x32","distribution":"Ubuntu","slug":"ubuntu-15-10-x32","public":true,"regions":["nyc1","sfo1","nyc2","ams2","sgp1","lon1","nyc3","ams3","fra1","tor1","sfo2","blr1"],"created_at":"2016-02-03T16:06:25Z","min_disk_size":20,"type":"snapshot","size_gigabytes":1.43},{"id":16040476,"name":"7.0 x64","distribution":"CentOS","slug":"centos-7-0-x64","public":true,"regions":["nyc1","sfo1","nyc2","ams2","sgp1","lon1","nyc3","ams3","fra1","tor1","sfo2","blr1"],"created_at":"2016-02-29T21:17:07Z","min_disk_size":20,"type":"snapshot","size_gigabytes":1.37},{"id":16623283,"name":"7.10 x32","distribution":"Debian","slug":"debian-7-0-x32","public":true,"regions":["nyc1","sfo1","nyc2","ams2","sgp1","lon1","nyc3","ams3","fra1","tor1","sfo2","blr1"],"created_at":"2016-04-04T18:11:05Z","min_disk_size":20,"type":"snapshot","size_gigabytes":0.78},{"id":16623308,"name":"7.10 x64","distribution":"Debian","slug":"debian-7-0-x64","public":true,"regions":["nyc1","sfo1","nyc2","ams2","sgp1","lon1","nyc3","ams3","fra1","tor1","sfo2","blr1"],"created_at":"2016-04-04T18:18:11Z","min_disk_size":20,"type":"snapshot","size_gigabytes":0.8100000000000001},{"id":17154032,"name":"14.04.4 x64","distribution":"Ubuntu","slug":"ubuntu-14-04-x64","public":true,"regions":["nyc1","sfo1","nyc2","ams2","sgp1","lon1","nyc3","ams3","fra1","tor1","sfo2","blr1"],"created_at":"2016-05-04T22:25:47Z","min_disk_size":20,"type":"snapshot","size_gigabytes":19.68},{"id":17154107,"name":"14.04.4 x32","distribution":"Ubuntu","slug":"ubuntu-14-04-x32","public":true,"regions":["nyc1","sfo1","nyc2","ams2","sgp1","lon1","nyc3","ams3","fra1","tor1","sfo2","blr1"],"created_at":"2016-05-04T22:29:21Z","min_disk_size":20,"type":"snapshot","size_gigabytes":19.68},{"id":17157155,"name":"12.04.5 x64","distribution":"Ubuntu","slug":"ubuntu-12-04-x64","public":true,"regions":["nyc1","sfo1","nyc2","ams2","sgp1","lon1","nyc3","ams3","fra1","tor1","sfo2","blr1"],"created_at":"2016-05-05T01:22:16Z","min_disk_size":20,"type":"snapshot","size_gigabytes":19.69},{"id":17157433,"name":"12.04.5 x32","distribution":"Ubuntu","slug":"ubuntu-12-04-x32","public":true,"regions":["nyc1","sfo1","nyc2","ams2","sgp1","lon1","nyc3","ams3","fra1","tor1","sfo2","blr1"],"created_at":"2016-05-05T01:32:28Z","min_disk_size":20,"type":"snapshot","size_gigabytes":19.69},{"id":17384153,"name":"7.2 x64","distribution":"CentOS","slug":"centos-7-2-x64","public":true,"regions":["nyc1","sfo1","nyc2","ams2","sgp1","lon1","nyc3","ams3","fra1","tor1","sfo2","blr1"],"created_at":"2016-05-17T16:17:10Z","min_disk_size":20,"type":"snapshot","size_gigabytes":19.67},{"id":17552918,"name":"1010.5.0 (stable)","distribution":"CoreOS","slug":"coreos-stable","public":true,"regions":["nyc1","sfo1","nyc2","ams2","sgp1","lon1","nyc3","ams3","fra1","tor1","sfo2","blr1"],"created_at":"2016-05-27T00:36:28Z","min_disk_size":20,"type":"snapshot","size_gigabytes":null},{"id":17785567,"name":"8.5 x64","distribution":"Debian","slug":"debian-8-x64","public":true,"regions":["nyc1","sfo1","nyc2","ams2","sgp1","lon1","nyc3","ams3","fra1","tor1","sfo2","blr1"],"created_at":"2016-06-08T18:47:49Z","min_disk_size":20,"type":"snapshot","size_gigabytes":null},{"id":17785568,"name":"8.5 x32","distribution":"Debian","slug":"debian-8-x32","public":true,"regions":["nyc1","sfo1","nyc2","ams2","sgp1","lon1","nyc3","ams3","fra1","tor1","sfo2","blr1"],"created_at":"2016-06-08T18:47:49Z","min_disk_size":20,"type":"snapshot","size_gigabytes":null},{"id":17894622,"name":"16.04 x64","distribution":"Ubuntu","slug":"ubuntu-16-04-x64","public":true,"regions":["nyc1","sfo1","nyc2","ams2","sgp1","lon1","nyc3","ams3","fra1","tor1","sfo2","blr1"],"created_at":"2016-06-14T17:31:03Z","min_disk_size":20,"type":"snapshot","size_gigabytes":null}],"links":{"pages":{"last":"https://api.digitalocean.com/v2/images?page=2&type=distribution","next":"https://api.digitalocean.com/v2/images?page=2&type=distribution"}},"meta":{"total":26}}