{
  "images": [
    {
      "min_disk_size": 20, 
      "slug": "redmine", 
      "name": "Redmine on 14.04", 
      "created_at": "2015-06-22T22:27:52Z", 
      "id": 12438838, 
      "regions": [
        "nyc1", 
        "ams1", 
        "sfo1", 
        "nyc2", 
        "ams2", 
        "sgp1", 
        "lon1", 
        "nyc3", 
        "ams3", 
        "fra1", 
        "tor1", 
        "sfo2", 
        "blr1"
      ], 
      "distribution": "Ubuntu", 
      "type": "snapshot", 
      "public": true, 
      "size_gigabytes": 1.83
    }, 
    {
      "min_disk_size": 30, 
      "slug": "elixir", 
      "name": "Elixir on 14.04", 
      "created_at": "2015-09-30T15:42:07Z", 
      "id": 13764801, 
      "regions": [
        "nyc1", 
        "sfo1", 
        "nyc2", 
        "ams2", 
        "sgp1", 
        "lon1", 
        "nyc3", 
        "ams3", 
        "fra1", 
        "tor1", 
        "sfo2", 
        "blr1"
      ], 
      "distribution": "Ubuntu", 
      "type": "snapshot", 
      "public": true, 
      "size_gigabytes": 1.72
    }, 
    {
      "min_disk_size": 20, 
      "slug": "phpmyadmin", 
      "name": "PHPMyAdmin on 14.04", 
      "created_at": "2015-10-28T05:43:09Z", 
      "id": 14147698, 
      "regions": [
        "nyc1", 
        "sfo1", 
        "nyc2", 
        "ams2", 
        "sgp1", 
        "lon1", 
        "nyc3", 
        "ams3", 
        "fra1", 
        "tor1", 
        "sfo2", 
        "blr1"
      ], 
      "distribution": "Ubuntu", 
      "type": "snapshot", 
      "public": true, 
      "size_gigabytes": 1.58
    }, 
    {
      "min_disk_size": 30, 
      "slug": "elk", 
      "name": "ELK Logging Stack on 14.04", 
      "created_at": "2016-02-23T20:38:16Z", 
      "id": 15942020, 
      "regions": [
        "nyc1", 
        "sfo1", 
        "nyc2", 
        "ams2", 
        "sgp1", 
        "lon1", 
        "nyc3", 
        "ams3", 
        "fra1", 
        "tor1", 
        "sfo2", 
        "blr1"
      ], 
      "distribution": "Ubuntu", 
      "type": "snapshot", 
      "public": true, 
      "size_gigabytes": 2.05
    }, 
    {
      "min_disk_size": 20, 
      "slug": "mumble", 
      "name": "Mumble Server (murmur) on 14.04", 
      "created_at": "2016-02-25T14:35:58Z", 
      "id": 15973046, 
      "regions": [
        "nyc1", 
        "sfo1", 
        "nyc2", 
        "ams2", 
        "sgp1", 
        "lon1", 
        "nyc3", 
        "ams3", 
        "fra1", 
        "tor1", 
        "sfo2", 
        "blr1"
      ], 
      "distribution": "Ubuntu", 
      "type": "snapshot", 
      "public": true, 
      "size_gigabytes": 1.6
    }, 
    {
      "min_disk_size": 20, 
      "slug": "ruby-on-rails", 
      "name": "Ruby on Rails on 14.04 (Postgres, Nginx, Unicorn)", 
      "created_at": "2016-03-03T20:41:00Z", 
      "id": 16089764, 
      "regions": [
        "nyc1", 
        "sfo1", 
        "nyc2", 
        "ams2", 
        "sgp1", 
        "lon1", 
        "nyc3", 
        "ams3", 
        "fra1", 
        "tor1", 
        "sfo2", 
        "blr1"
      ], 
      "distribution": "Ubuntu", 
      "type": "snapshot", 
      "public": true, 
      "size_gigabytes": 2.0
    }, 
    {
      "min_disk_size": 20, 
      "slug": "django", 
      "name": "Django on 14.04", 
      "created_at": "2016-03-03T20:42:34Z", 
      "id": 16089776, 
      "regions": [
        "nyc1", 
        "sfo1", 
        "nyc2", 
        "ams2", 
        "sgp1", 
        "lon1", 
        "nyc3", 
        "ams3", 
        "fra1", 
        "tor1", 
        "sfo2", 
        "blr1"
      ], 
      "distribution": "Ubuntu", 
      "type": "snapshot", 
      "public": true, 
      "size_gigabytes": 1.81
    }, 
    {
      "min_disk_size": 30, 
      "slug": "cassandra", 
      "name": "Cassandra on 14.04", 
      "created_at": "2016-03-21T04:25:45Z", 
      "id": 16376426, 
      "regions": [
        "nyc1", 
        "sfo1", 
        "nyc2", 
        "ams2", 
        "sgp1", 
        "lon1", 
        "nyc3", 
        "ams3", 
        "fra1", 
        "tor1", 
        "sfo2", 
        "blr1"
      ], 
      "distribution": "Ubuntu", 
      "type": "snapshot", 
      "public": true, 
      "size_gigabytes": 1.7
    }, 
    {
      "min_disk_size": 20, 
      "slug": "mediawiki", 
      "name": "MediaWiki on 14.04", 
      "created_at": "2016-03-30T05:54:10Z", 
      "id": 16529767, 
      "regions": [
        "nyc1", 
        "sfo1", 
        "nyc2", 
        "ams2", 
        "sgp1", 
        "lon1", 
        "nyc3", 
        "ams3", 
        "fra1", 
        "tor1", 
        "sfo2", 
        "blr1"
      ], 
      "distribution": "Ubuntu", 
      "type": "snapshot", 
      "public": true, 
      "size_gigabytes": 1.94
    }, 
    {
      "min_disk_size": 30, 
      "slug": "wordpress", 
      "name": "WordPress on 14.04", 
      "created_at": "2016-03-30T06:41:02Z", 
      "id": 16530664, 
      "regions": [
        "nyc1", 
        "sfo1", 
        "nyc2", 
        "ams2", 
        "sgp1", 
        "lon1", 
        "nyc3", 
        "ams3", 
        "fra1", 
        "tor1", 
        "sfo2", 
        "blr1"
      ], 
      "distribution": "Ubuntu", 
      "type": "snapshot", 
      "public": true, 
      "size_gigabytes": 1.73
    }, 
    {
      "min_disk_size": 20, 
      "slug": "lemp", 
      "name": "LEMP on 14.04", 
      "created_at": "2016-03-30T21:38:40Z", 
      "id": 16539180, 
      "regions": [
        "nyc1", 
        "sfo1", 
        "nyc2", 
        "ams2", 
        "sgp1", 
        "lon1", 
        "nyc3", 
        "ams3", 
        "fra1", 
        "tor1", 
        "sfo2", 
        "blr1"
      ], 
      "distribution": "Ubuntu", 
      "type": "snapshot", 
      "public": true, 
      "size_gigabytes": 1.68
    }, 
    {
      "min_disk_size": 20, 
      "slug": "lamp", 
      "name": "LAMP on 14.04", 
      "created_at": "2016-03-30T21:44:25Z", 
      "id": 16539246, 
      "regions": [
        "nyc1", 
        "sfo1", 
        "nyc2", 
        "ams2", 
        "sgp1", 
        "lon1", 
        "nyc3", 
        "ams3", 
        "fra1", 
        "tor1", 
        "sfo2", 
        "blr1"
      ], 
      "distribution": "Ubuntu", 
      "type": "snapshot", 
      "public": true, 
      "size_gigabytes": 1.86
    }, 
    {
      "min_disk_size": 40, 
      "slug": "discourse", 
      "name": "Discourse on 14.04", 
      "created_at": "2016-04-12T06:24:37Z", 
      "id": 16753867, 
      "regions": [
        "nyc1", 
        "sfo1", 
        "nyc2", 
        "ams2", 
        "sgp1", 
        "lon1", 
        "nyc3", 
        "ams3", 
        "fra1", 
        "tor1", 
        "sfo2", 
        "blr1"
      ], 
      "distribution": "Ubuntu", 
      "type": "snapshot", 
      "public": true, 
      "size_gigabytes": 39.68
    }, 
    {
      "min_disk_size": 20, 
      "slug": "joomla", 
      "name": "Joomla! 3.5.1 on 14.04", 
      "created_at": "2016-04-22T18:57:29Z", 
      "id": 16937126, 
      "regions": [
        "nyc1", 
        "sfo1", 
        "nyc2", 
        "ams2", 
        "sgp1", 
        "lon1", 
        "nyc3", 
        "ams3", 
        "fra1", 
        "tor1", 
        "sfo2", 
        "blr1"
      ], 
      "distribution": "Ubuntu", 
      "type": "snapshot", 
      "public": true, 
      "size_gigabytes": 19.69
    }, 
    {
      "min_disk_size": 20, 
      "slug": "mean", 
      "name": "MEAN on 14.04", 
      "created_at": "2016-04-29T18:42:22Z", 
      "id": 17061879, 
      "regions": [
        "nyc1", 
        "sfo1", 
        "nyc2", 
        "ams2", 
        "sgp1", 
        "lon1", 
        "nyc3", 
        "ams3", 
        "fra1", 
        "tor1", 
        "sfo2", 
        "blr1"
      ], 
      "distribution": "Ubuntu", 
      "type": "snapshot", 
      "public": true, 
      "size_gigabytes": 19.63
    }, 
    {
      "min_disk_size": 20, 
      "slug": "drone", 
      "name": "Drone 0.4 on 14.04", 
      "created_at": "2016-05-12T15:13:17Z", 
      "id": 17294098, 
      "regions": [
        "nyc1", 
        "sfo1", 
        "nyc2", 
        "ams2", 
        "sgp1", 
        "lon1", 
        "nyc3", 
        "ams3", 
        "fra1", 
        "tor1", 
        "sfo2", 
        "blr1"
      ], 
      "distribution": "Ubuntu", 
      "type": "snapshot", 
      "public": true, 
      "size_gigabytes": 19.68
    }, 
    {
      "min_disk_size": 20, 
      "slug": "ghost", 
      "name": "Ghost 0.8.0 on 14.04", 
      "created_at": "2016-05-23T20:12:42Z", 
      "id": 17493934, 
      "regions": [
        "nyc1", 
        "sfo1", 
        "nyc2", 
        "ams2", 
        "sgp1", 
        "lon1", 
        "nyc3", 
        "ams3", 
        "fra1", 
        "tor1", 
        "sfo2", 
        "blr1"
      ], 
      "distribution": "Ubuntu", 
      "type": "snapshot", 
      "public": true, 
      "size_gigabytes": 19.69
    }, 
    {
      "min_disk_size": 30, 
      "slug": "horizon", 
      "name": "Horizon w/ RethinkDB on 14.04", 
      "created_at": "2016-06-10T04:54:21Z", 
      "id": 17815742, 
      "regions": [
        "nyc1", 
        "sfo1", 
        "nyc2", 
        "ams2", 
        "sgp1", 
        "lon1", 
        "nyc3", 
        "ams3", 
        "fra1", 
        "tor1", 
        "sfo2", 
        "blr1"
      ], 
      "distribution": "Ubuntu", 
      "type": "snapshot", 
      "public": true, 
      "size_gigabytes": 29.68
    }, 
    {
      "min_disk_size": 20, 
      "slug": "owncloud", 
      "name": "ownCloud 9.0.2 on 14.04", 
      "created_at": "2016-06-20T05:02:32Z", 
      "id": 17998820, 
      "regions": [
        "nyc1", 
        "sfo1", 
        "nyc2", 
        "ams2", 
        "sgp1", 
        "lon1", 
        "nyc3", 
        "ams3", 
        "fra1", 
        "tor1", 
        "sfo2", 
        "blr1"
      ], 
      "distribution": "Ubuntu", 
      "type": "snapshot", 
      "public": true, 
      "size_gigabytes": 19.68
    }, 
    {
      "min_disk_size": 20, 
      "slug": "redis", 
      "name": "Redis 3.2.1 on 14.04", 
      "created_at": "2016-06-20T05:38:38Z", 
      "id": 17999703, 
      "regions": [
        "nyc1", 
        "sfo1", 
        "nyc2", 
        "ams2", 
        "sgp1", 
        "lon1", 
        "nyc3", 
        "ams3", 
        "fra1", 
        "tor1", 
        "sfo2", 
        "blr1"
      ], 
      "distribution": "Ubuntu", 
      "type": "snapshot", 
      "public": true, 
      "size_gigabytes": 19.68
    }
  ], 
  "meta": {
    "total": 27
  }, 
  "links": {
    "pages": {
      "last": "https://api.digitalocean.com/v2/images?page=2&type=application", 
      "next": "https://api.digitalocean.com/v2/images?page=2&type=application"
    }
  }
}
